{
    "identifier": "stoklund.Ada",
    "name": "Ada 2012",
    "organization": "Jakob Stoklund Olesen",
    "description": "Ada 2012 Programming Language Support",
    "bugs": "https://codeberg.org/stoklund/Nova-Ada/issues",
    "repository": "https://codeberg.org/stoklund/Nova-Ada",
    "version": "1.1",
    "categories": ["languages"]
}
